Datacamp project: What determines hair loss? A Bayesain logistic regression analysis
…
#simulate the model
  model_3 <- stan_glm(
    Hair.Loss ~ Age + Genetics+Hormonal.Changes+Poor.Hair.Care.Habits + Smoking + Weight.Loss+Environmental.Factors+ Medical.Conditions+Medications...Treatments+Stress,
    data = data, family = binomial,
    prior_intercept = normal(-0.8, 0.4),
    prior = normal(0, 2.5, autoscale = TRUE),
    chains = 4, iter = 5000 * 2, seed = 87453804,
  )

Notice that Genetics posterior straddles 0 with a 80% posterior credible interval. This suggest that Genetics is not a significant predictor of hair loss when controlling for medical conditions, medical treatment and stress. In other words, this may imply when we already know the medical conditions, medical treatment and stress, genetics does not significantly improve our understanding of hair loss. Weight loss remains as a significant predictor as well as medical conditions especially Alopecia Areata at 80% posterior credible interval.

tidy(model_3, effects = "fixed",
     conf.int = TRUE, conf.level = 0.8)

# A tibble: 28 × 5
   term                                    estimate std.error conf.low conf.high
   <chr>                                      <dbl>     <dbl>    <dbl>     <dbl>
 1 "(Intercept)"                            0.192     0.495    -0.446    0.824  
 2 "Age"                                   -0.00632   0.00905  -0.0176   0.00528
 3 "GeneticsYes"                            0.153     0.148    -0.0366   0.341  
 4 "Hormonal.ChangesYes"                    0.0531    0.146    -0.138    0.243  
 5 "Poor.Hair.Care.HabitsYes"              -0.202     0.146    -0.390   -0.0132 
 6 "SmokingYes"                            -0.280     0.148    -0.471   -0.0914 
 7 "Weight.LossYes"                         0.224     0.149     0.0329   0.415  
 8 "Environmental.FactorsYes"               0.00636   0.145    -0.179    0.193  
 9 "Medical.ConditionsAlopecia Areata "     0.500     0.338     0.0759   0.934  
10 "Medical.ConditionsAndrogenetic Alopec…  0.409     0.341    -0.0284   0.847  
# ℹ 18 more rows
…
